00_Joining_Datasets
…
# A tibble: 0 × 2
# ℹ 2 variables: tag_id <dbl>, tag_name <chr>

anti_join(books_tags, tags, by = c("tag_id" = "tag_id")) 

# A tibble: 0 × 3
# ℹ 3 variables: goodreads_book_id <dbl>, tag_id <dbl>, count <dbl>

Using anti_joins shows us that there are no tag_id rows in books_tags that don’t have a matching tag_id row in tags. In other words, every tag_id is unique and each tag_id row in both datasets correspond directly to each other.

Also, we can check double this. If we take the count of tag_id in both datasets, the number of rows is exactly the same: 34,252 rows.

books_tags |> count(tag_id)

# A tibble: 34,252 × 2
   tag_id     n
    <dbl> <int>
 1      0     7
 2      1     2
 3      2     1
 4      3     1
 5      4     1
 6      5     1
 7      6     1
 8      7     1
 9      8     1
10      9     1
# ℹ 34,242 more rows

tags |> count(tag_id)

# A tibble: 34,252 × 2
   tag_id     n
    <dbl> <int>
 1      0     1
 2      1     1
 3      2     1
 4      3     1
 5      4     1
 6      5     1
 7      6     1
 8      7     1
 9      8     1
10      9     1
# ℹ 34,242 more rows
…
