The Habits of Goodreads Users
…
Code

count_cut <- books_and_ratings_top_raters |> 
  mutate(average_rating_cut = cut(count, 
                                 breaks = c(0, 25, 50, 75,
                                            100, 125, 150, 175,
                                            200))) 

count_cut

# A tibble: 99,998 × 27
# Groups:   book_id [10,000]
   book_id goodreads_book_id best_book_id work_id books_count isbn        isbn13
     <dbl>             <dbl>        <dbl>   <dbl>       <dbl> <chr>        <dbl>
 1       1           2767052      2767052 2792775         272 439023483  9.78e12
 2       1           2767052      2767052 2792775         272 439023483  9.78e12
 3       1           2767052      2767052 2792775         272 439023483  9.78e12
 4       1           2767052      2767052 2792775         272 439023483  9.78e12
 5       1           2767052      2767052 2792775         272 439023483  9.78e12
 6       1           2767052      2767052 2792775         272 439023483  9.78e12
 7       1           2767052      2767052 2792775         272 439023483  9.78e12
 8       1           2767052      2767052 2792775         272 439023483  9.78e12
 9       1           2767052      2767052 2792775         272 439023483  9.78e12
10       1           2767052      2767052 2792775         272 439023483  9.78e12
# ℹ 99,988 more rows
# ℹ 20 more variables: authors <chr>, original_publication_year <dbl>,
#   original_title <chr>, title <chr>, language_code <chr>,
#   average_rating <dbl>, ratings_count <dbl>, work_ratings_count <dbl>,
#   work_text_reviews_count <dbl>, ratings_1 <dbl>, ratings_2 <dbl>,
#   ratings_3 <dbl>, ratings_4 <dbl>, ratings_5 <dbl>, image_url <chr>,
#   small_image_url <chr>, user_id <dbl>, rating <dbl>, count <int>, …
…
Question 3: What are the most common tags?

Question 3, Part 1: Which books have the most tags? The most hated or liked ones?

Code

tags_count <- books_and_tags |> 
  group_by(goodreads_book_id) |> 
  # add everything in count
  summarize(book_tags_count = n())

tags_count

# A tibble: 10,000 × 2
   goodreads_book_id book_tags_count
               <dbl>           <int>
 1                 1             100
 2                 2             100
 3                 3             100
 4                 5             100
 5                 6             100
 6                 8             100
 7                10             100
 8                11             100
 9                13             100
10                21             100
# ℹ 9,990 more rows
…
